{
    "name": "Tars",
    "tag": "JPBS",
    "pilot": "Joao Pedro Brito Silva",
    "mainFile": "src/solutis/Tars.java",
    "supportFiles": [
        "src/solutis/core/DataTracker.java",
        "src/solutis/core/EnemyData.java",
        "src/solutis/gun/GunStrategy.java",
        "src/solutis/gun/LinearTargetingGun.java",
        "src/solutis/movement/MovementStrategy.java",
        "src//solutismovement/MinimumRisk.java"
    ]
}
